{
  "customMessageBackgroundColor": "#cccccc",
  "sentMessageBackgroundColor": "#cccccc",
  "receivedMessageBackgroundColor": "#cccccc",
  "sendButtonBackgroundColor": "#cccccc",
  "attachmentIconsBackgroundColor": "#cccccc",
  "channelCustomMessageBgColor": "#cccccc",

  "sentContactMessageTextColor:": "#000000",
  "receivedContactMessageTextColor": "#000000",
  "sentMessageTextColor": "#000000",
  "receivedMessageTextColor": "#cccccc",
  "messageEditTextTextColor": "#cccccc",
  "sentMessageLinkTextColor": "#FFFFFFFF",
  "receivedMessageLinkTextColor": "#000000",
  "messageEditTextHintTextColor": "#bdbdbd",
  "noConversationLabelTextColor": "#000000",
  "conversationDateTextColor": "#000000",
  "conversationDayTextColor": "#333333",
  "messageTimeTextColor": "#cccccc",
  "channelCustomMessageTextColor": "#000000",

  "sentMessageBorderColor": "#000000",
  "receivedMessageBorderColor": "#000000",
  "channelCustomMessageBorderColor": "#000000",
  "collapsingToolbarLayoutColor":"#000000",
  "groupParticipantsTextColor":"#000000",
  "groupDeleteButtonBackgroundColor":"#000000",
  "groupExitButtonBackgroundColor":"#000000",
  "adminTextColor":"#000000",
  "attachCameraIconName":"applozic_ic_action_camera_new",
  "adminBackgroundColor":"#000000",
  "adminBorderColor":"#000000",
  "userNotAbleToChatTextColor":"#000000",

  "audioPermissionNotFoundMsg": "",
  "noConversationLabel": "You have no conversations",
  "noSearchFoundForChatMessages": "No conversation found",
  "totalRegisteredUserToFetch": 100,
  "maxAttachmentAllowed": 10,
  "maxAttachmentSizeAllowed": 30,
  "totalOnlineUsers": 0,

  "conversationContactImageVisibility": false,
  "locationShareViaMap": true,
  "startNewFloatingButton": false,
  "startNewButton": true,
  "onlineStatusMasterList": false,
  "startNewGroup": true,
  "imageCompression": false,
  "inviteFriendsInContactActivity": false,
  "registeredUserContactListCall": false,
  "createAnyContact": false,
  "showActionDialWithOutCalling": false,
  "profileLogoutButton": false,
  "userProfileFragment": true,
  "messageSearchOption": false,
  "hideGroupAddMembersButton": false,
  "hideGroupNameUpdateButton": false,
  "hideGroupExitButton": false,
  "hideGroupRemoveMemberOption": false,
  "profileOption": false,
  "broadcastOption":true
}